Inference I
…
---
.pull-left[ 
### 1970s Discrimination Study
* We will look at a study investigating sex discrimination in the 1970s
* Question we investigate: "Are individuals who identify as female discriminated against in promotion decisions made by their managers who identify as male?"

```r
openintro::sex_discrimination
#> # A tibble: 48 × 2
#>   sex   decision
#>   <fct> <fct>   
#> 1 male  promoted
#> 2 male  promoted
#> 3 male  promoted
#> 4 male  promoted
#> 5 male  promoted
#> 6 male  promoted
#> # ℹ 42 more rows
…
