Visualizations IV / Factors
…
```r
levels(y2)
#>  [1] "Jan" "Feb" "Mar" "Apr" "May" "Jun" "Jul" "Aug" "Sep" "Oct" "Nov" "Dec"
```

]

---

### Factor: General Social Survey
* We'll look at survey data from the General Social Survey (`forcats::gss_cat`, loaded in tidyverse)

```r
gss_cat
#> # A tibble: 21,483 × 9
#>    year marital         age race  rincome        partyid           
#>   <int> <fct>         <int> <fct> <fct>          <fct>             
#> 1  2000 Never married    26 White $8000 to 9999  Ind,near rep      
#> 2  2000 Divorced         48 White $8000 to 9999  Not str republican
#> 3  2000 Widowed          67 White Not applicable Independent       
#> 4  2000 Never married    39 White Not applicable Ind,near rep      
#> 5  2000 Divorced         25 White Not applicable Not str democrat  
#> 6  2000 Married          25 White $20000 - 24999 Strong democrat   
#> # ℹ 21,477 more rows
#> # ℹ 3 more variables: relig <fct>, denom <fct>, tvhours <int>
```
…
<img src="lec12-visualization-4_files/figure-html/unnamed-chunk-22-1.png" width="360" />

]

---

### Modifying factor levels 

.pull-left[
* Often will want to change values of levels so that plots look better

```r
gss_cat %>% count(partyid)
#> # A tibble: 10 × 2
#>   partyid                n
#>   <fct>              <int>
#> 1 No answer            154
#> 2 Don't know             1
#> 3 Other party          393
#> 4 Strong republican   2314
#> 5 Not str republican  3032
#> 6 Ind,near rep        1791
#> # ℹ 4 more rows
```
…
.pull-left[

```r
gss_cat %>%
  mutate(
    partyid = fct_recode(partyid,
      "Republican, strong"    = "Strong republican",
      "Republican, weak"      = "Not str republican",
      "Independent, near rep" = "Ind,near rep",
      "Independent, near dem" = "Ind,near dem",
      "Democrat, weak"        = "Not str democrat",
      "Democrat, strong"      = "Strong democrat")) %>%
  count(partyid)
#> # A tibble: 10 × 2
#>   partyid                   n
#>   <fct>                 <int>
#> 1 No answer               154
#> 2 Don't know                1
#> 3 Other party             393
#> 4 Republican, strong     2314
#> 5 Republican, weak       3032
#> 6 Independent, near rep  1791
#> # ℹ 4 more rows
```
…
---

### Examples
* Let's now try and put some of all of the ideas we've seen so far together
* Look at the `weather` tibble in nycflights13:

```r
library(nycflights13)
weather
#> # A tibble: 26,115 × 15
#>   origin  year month   day  hour  temp  dewp humid wind_dir wind_speed
#>   <chr>  <int> <int> <int> <int> <dbl> <dbl> <dbl>    <dbl>      <dbl>
#> 1 EWR     2013     1     1     1  39.0  26.1  59.4      270      10.4 
#> 2 EWR     2013     1     1     2  39.0  27.0  61.6      250       8.06
#> 3 EWR     2013     1     1     3  39.0  28.0  64.4      240      11.5 
#> 4 EWR     2013     1     1     4  39.9  28.0  62.2      250      12.7 
#> 5 EWR     2013     1     1     5  39.0  28.0  64.4      260      12.7 
#> 6 EWR     2013     1     1     6  37.9  28.0  67.2      240      11.5 
#> # ℹ 26,109 more rows
#> # ℹ 5 more variables: wind_gust <dbl>, precip <dbl>, pressure <dbl>, …
```
…
<img src="lec12-visualization-4_files/figure-html/unnamed-chunk-29-1.png" width="360" />
* This is OK, but not ideal.  No legend appears by default, also have to manually add three geom_line's.
* Better idea is to clean the tibble so that we have groups of data: for this we need data to be *long*
]

.pull-right[

```r
(weather3 <- weather2 %>%
  pivot_longer(cols = c(min_temp, max_temp, avg_temp),
               values_to = "temperature",
               names_to = "measurement")
)
#> # A tibble: 108 × 5
#> # Groups:   month [12]
#>   month origin     n measurement temperature
#>   <int> <chr>  <int> <chr>             <dbl>
#> 1     1 EWR        1 min_temp           10.9
#> 2     1 EWR        1 max_temp           64.4
#> 3     1 EWR        1 avg_temp           35.6
#> 4     1 JFK        1 min_temp           12.0
#> 5     1 JFK        1 max_temp           57.9
#> 6     1 JFK        1 avg_temp           35.4
#> # ℹ 102 more rows
```
…
