Functions 1
…
```r
( df_long <- df_paired |> 
  pivot_longer(
    cols = everything(), 
    names_to = c("group", ".value"), 
    names_sep = "_"
  ) )
#> # A tibble: 40 × 3
#>   group    val   wts
#>   <chr>  <dbl> <dbl>
#> 1 a      0.715 0.518
#> 2 b     -0.709 0.691
#> 3 c      0.718 0.216
#> 4 d     -0.217 0.733
#> 5 a     -1.09  0.979
#> 6 b     -0.209 0.675
#> # ℹ 34 more rows
…
.pull-right[
* Group diamonds by `cut`, `clarity`, and `color`, then count the number of observations and compute the mean of each numeric column.

```r
diamonds %>%
  group_by(cut, clarity, color) %>%
  summarize(num = n(), across(where(is.numeric), mean))
#> `summarise()` has grouped output by 'cut', 'clarity'. You can override using
#> the `.groups` argument.
#> # A tibble: 276 × 11
#> # Groups:   cut, clarity [40]
#>   cut   clarity color   num carat depth table price     x     y     z
#>   <ord> <ord>   <ord> <dbl> <dbl> <dbl> <dbl> <dbl> <dbl> <dbl> <dbl>
#> 1 Fair  I1      D         4 1.88   65.6  56.8 7383   7.52  7.42  4.90
#> 2 Fair  I1      E         9 0.969  65.6  58.1 2095.  6.17  6.06  4.01
#> 3 Fair  I1      F        35 1.02   65.7  58.4 2544.  6.14  6.04  4.00
#> 4 Fair  I1      G        53 1.23   65.3  57.7 3187.  6.52  6.43  4.23
#> 5 Fair  I1      H        52 1.50   65.8  58.4 4213.  6.96  6.86  4.55
#> 6 Fair  I1      I        34 1.32   65.7  58.4 3501   6.76  6.65  4.41
#> # ℹ 270 more rows
```
…
---
### Linear regression for predicting possum head lengths
.pull-left[ 
* We'll look into a dataset which has measurements of possum body lengths and head lengths
* We want to see if we can predict the head length given the body length
* Let's examine a scatterplot of this data (`possum` is in `openintro` library)

```r
possum
#> # A tibble: 104 × 8
#>    site pop   sex     age head_l skull_w total_l tail_l
#>   <int> <fct> <fct> <int>  <dbl>   <dbl>   <dbl>  <dbl>
#> 1     1 Vic   m         8   94.1    60.4    89     36  
#> 2     1 Vic   f         6   92.5    57.6    91.5   36.5
#> 3     1 Vic   f         6   94      60      95.5   39  
#> 4     1 Vic   f         6   93.2    57.1    92     38  
#> 5     1 Vic   f         2   91.5    56.3    85.5   36  
#> 6     1 Vic   f         1   93.1    54.8    90.5   35.5
#> # ℹ 98 more rows
```
…
.pull-right[

<img src="lec14-functions-2_v0_files/figure-html/unnamed-chunk-43-1.png" width="432" />
* Most commonly used one is least squares, we'll focus on this 
]

---
### Fitting least squares lines in R
.pull-left[
* Let's consider the `elmhurst` dataset:

```r
elmhurst
#> # A tibble: 50 × 3
#>   family_income gift_aid price_paid
#>           <dbl>    <dbl>      <dbl>
#> 1         92.9      21.7      14.3 
#> 2          0.25     27.5       8.53
#> 3         53.1      27.8      14.2 
#> 4         50.2      27.2       8.78
#> 5        138.       18        24   
#> 6         48.0      18.5      23.5 
#> # ℹ 44 more rows
```
…
