Functions 2
…
```r
( df_long <- df_paired |> 
  pivot_longer(
    cols = everything(), 
    names_to = c("group", ".value"), 
    names_sep = "_"
  ) )
```

```
# A tibble: 40 × 3
   group     val   wts
   <chr>   <dbl> <dbl>
 1 a      0.0979 0.487
 2 b      0.0531 0.184
 3 c      1.60   0.726
 4 d     -0.275  0.195
 5 a      1.15   0.669
 6 b     -0.664  0.459
 7 c      0.872  0.921
 8 d     -0.474  0.383
 9 a     -0.955  0.451
10 b      0.522  0.919
# ℹ 30 more rows
```
…
```r
diamonds %>%
  group_by(cut, clarity, color) %>%
  summarize(num = n(), across(where(is.numeric), mean))
```

```
`summarise()` has grouped output by 'cut', 'clarity'. You can override using
the `.groups` argument.
```

```
# A tibble: 276 × 11
# Groups:   cut, clarity [40]
   cut   clarity color   num carat depth table price     x     y     z
   <ord> <ord>   <ord> <dbl> <dbl> <dbl> <dbl> <dbl> <dbl> <dbl> <dbl>
 1 Fair  I1      D         4 1.88   65.6  56.8 7383   7.52  7.42  4.90
 2 Fair  I1      E         9 0.969  65.6  58.1 2095.  6.17  6.06  4.01
 3 Fair  I1      F        35 1.02   65.7  58.4 2544.  6.14  6.04  4.00
 4 Fair  I1      G        53 1.23   65.3  57.7 3187.  6.52  6.43  4.23
 5 Fair  I1      H        52 1.50   65.8  58.4 4213.  6.96  6.86  4.55
 6 Fair  I1      I        34 1.32   65.7  58.4 3501   6.76  6.65  4.41
 7 Fair  I1      J        23 1.99   66.5  57.9 5795.  7.55  7.46  4.99
 8 Fair  SI2     D        56 1.02   64.7  58.6 4355.  6.24  6.17  4.01
 9 Fair  SI2     E        78 1.02   63.4  59.5 4172.  6.28  6.22  3.96
10 Fair  SI2     F        89 1.08   63.8  59.5 4520.  6.36  6.30  4.04
# ℹ 266 more rows
```
…
---
### Linear regression for predicting possum head lengths
.pull-left[ 
* We'll look into a dataset which has measurements of possum body lengths and head lengths
* We want to see if we can predict the head length given the body length
* Let's examine a scatterplot of this data (`possum` is in `openintro` library)

```r
possum
```

```
# A tibble: 104 × 8
    site pop   sex     age head_l skull_w total_l tail_l
   <int> <fct> <fct> <int>  <dbl>   <dbl>   <dbl>  <dbl>
 1     1 Vic   m         8   94.1    60.4    89     36  
 2     1 Vic   f         6   92.5    57.6    91.5   36.5
 3     1 Vic   f         6   94      60      95.5   39  
 4     1 Vic   f         6   93.2    57.1    92     38  
 5     1 Vic   f         2   91.5    56.3    85.5   36  
 6     1 Vic   f         1   93.1    54.8    90.5   35.5
 7     1 Vic   m         2   95.3    58.2    89.5   36  
 8     1 Vic   f         6   94.8    57.6    91     37  
 9     1 Vic   f         9   93.4    56.3    91.5   37  
10     1 Vic   f         6   91.8    58      89.5   37.5
# ℹ 94 more rows
```
…
