Functions and Intro to Linear Regression
…
* Just as before, we find those `\(b_0, \cdots, b_8\)` such that the sum of squared residuals is small,

$$
`\begin{aligned}
SSE = e_1^2 + \cdots + e_{10000}^2 = \sum_{i=1}^n e_i^2.
\end{aligned}`
$$

* We can use `lm()` just as before.  But now, we use `lm(response ~ .)` to mean we use ALL predictors in the data except for `response` to fit a linear model.

```r
m_full <- lm(interest_rate ~ ., data = loans)
m_full |>
  tidy() 
#> # A tibble: 10 × 5
#>   term                           estimate std.error statistic   p.value
#>   <chr>                             <dbl>     <dbl>     <dbl>     <dbl>
#> 1 (Intercept)                      1.89     0.210        9.01 2.49e- 19
#> 2 verified_incomeSource Verified   0.997    0.0992      10.1  1.12e- 23
#> 3 verified_incomeVerified          2.56     0.117       21.9  1.25e-103
#> 4 debt_to_income                   0.0218   0.00294      7.43 1.14e- 13
#> 5 credit_util                      4.90     0.162       30.2  2.21e-192
#> 6 bankruptcy1                      0.391    0.132        2.96 3.12e-  3
#> # ℹ 4 more rows
```
…
