Functions 1
…
.pull-left[
* You can supply conditions as well:

```r
library(nycflights13)
unique_where <- function(df, condition, var) {
  df |> 
    filter({{ condition }}) |> 
    distinct({{ var }}) |> 
    arrange({{ var }})
}

flights |> unique_where(month == 12, dest)
#> # A tibble: 96 × 1
#>   dest 
#>   <chr>
#> 1 ABQ  
#> 2 ALB  
#> 3 ATL  
#> 4 AUS  
#> 5 AVL  
#> 6 BDL  
#> # ℹ 90 more rows
```
…
<img src="lec13-functions-1_files/figure-html/unnamed-chunk-40-1.png" width="252" />

]

---

.pull-left[ 
* Let's now try to create a function which creates a bar plot given a tibble and a variable name (a factor), but where the bars are ordered top-to-bottom from most-frequent to least-frequent.
* Useful function: `fct_infreq`, re-orders factor levels by number of observations within each level (largest first)
* See how it works:

```r
diamonds %>% count(clarity) %>% 
  arrange(by = desc(n))
#> # A tibble: 8 × 2
#>   clarity     n
#>   <ord>   <int>
#> 1 SI1     13065
#> 2 VS2     12258
#> 3 SI2      9194
#> 4 VS1      8171
#> 5 VVS2     5066
#> 6 VVS1     3655
#> # ℹ 2 more rows
…
]

---

.pull-left[ 
* Let's now try to create a function which creates a bar plot given a tibble and a variable name (a factor), but where the bars are ordered top-to-bottom from most-frequent to least-frequent.
* Useful function: `fct_infreq`, re-orders factor levels by number of observations within each level (largest first)
* See how it works:

```r
diamonds %>% count(clarity) %>% 
  arrange(by = desc(n))
#> # A tibble: 8 × 2
#>   clarity     n
#>   <ord>   <int>
#> 1 SI1     13065
#> 2 VS2     12258
#> 3 SI2      9194
#> 4 VS1      8171
#> 5 VVS2     5066
#> 6 VVS1     3655
#> # ℹ 2 more rows
…
