Inference for a single mean
…
<img src="lec20-inference-single-mean_files/figure-html/fig-tDistConvergeToNormalDist-1.png" width="432" />

]

.pull-right[
* Recall in R, to calculate probabilities under normal, we used 
  - `pnorm(val, mean, sd)` to calculate probability that `\(N(\mu, \sigma)\)` is `\(<= \text{val}\)`
  - `qnorm(quantile, mean, sd)` to calculate value corresponding to `quantile`
* Similarly, for `\(t\)`-distribution, we use
  - `pt(val, df)` to calculate probability that `\(t\)` distr. with `df` degrees of freedom is `\(<= \text{val}\)`
  - `qt(quantile, df)` to calculate value corresponding to `quantile` for `\(t\)` distr. with `df` degrees of freedom 

```r
pnorms
#> # A tibble: 7 × 5
#>     val   pnorm   pt_2   pt_5   pt_30
#>   <dbl>   <dbl>  <dbl>  <dbl>   <dbl>
#> 1    -3 0.00135 0.0477 0.0150 0.00269
#> 2    -2 0.0228  0.0918 0.0510 0.0273 
#> 3    -1 0.159   0.211  0.182  0.163  
#> 4     0 0.5     0.5    0.5    0.5    
#> 5     1 0.841   0.789  0.818  0.837  
#> 6     2 0.977   0.908  0.949  0.973  
#> # ℹ 1 more row
```
…
